%YAML 1.1
%TAG !u! tag:unity3d.com,2011:
--- !u!114 &-2537148804073877609
MonoBehaviour:
  m_ObjectHideFlags: 11
  m_CorrespondingSourceObject: {fileID: 0}
  m_PrefabInstance: {fileID: 0}
  m_PrefabAsset: {fileID: 0}
  m_GameObject: {fileID: 0}
  m_Enabled: 1
  m_EditorHideFlags: 0
  m_Script: {fileID: 11500000, guid: d0353a89b1f911e48b9e16bdc9f2e058, type: 3}
  m_Name: 
  m_EditorClassIdentifier: 
  version: 7
--- !u!21 &2100000
Material:
  serializedVersion: 8
  m_ObjectHideFlags: 0
  m_CorrespondingSourceObject: {fileID: 0}
  m_PrefabInstance: {fileID: 0}
  m_PrefabAsset: {fileID: 0}
  m_Name: PolygonSamurai_Mat_04
  m_Shader: {fileID: 4800000, guid: 933532a4fcc9baf4fa0491de14d08ed7, type: 3}
  m_Parent: {fileID: 2100000, guid: f58eb4014cacded4d89c32b81aa213c1, type: 2}
  m_ModifiedSerializedProperties: 18
  m_ValidKeywords:
  - _EMISSION
  m_InvalidKeywords: []
  m_LightmapFlags: 2
  m_EnableInstancingVariants: 0
  m_DoubleSidedGI: 0
  m_CustomRenderQueue: 1998
  stringTagMap:
    IgnoreProjection: False
    RenderType: Opaque
  disabledShaderPasses: []
  m_LockedProperties: 
  m_SavedProperties:
    serializedVersion: 3
    m_TexEnvs:
    - _1st_ShadeMap:
        m_Texture: {fileID: 2800000, guid: f37027a7baf844d41b58d162d542e902, type: 3}
        m_Scale: {x: 1, y: 1}
        m_Offset: {x: 0, y: 0}
    - _2nd_ShadeMap:
        m_Texture: {fileID: 2800000, guid: f37027a7baf844d41b58d162d542e902, type: 3}
        m_Scale: {x: 1, y: 1}
        m_Offset: {x: 0, y: 0}
    - _BaseMap:
        m_Texture: {fileID: 2800000, guid: f37027a7baf844d41b58d162d542e902, type: 3}
        m_Scale: {x: 1, y: 1}
        m_Offset: {x: 0, y: 0}
    - _Emissive_Tex:
        m_Texture: {fileID: 2800000, guid: f37027a7baf844d41b58d162d542e902, type: 3}
        m_Scale: {x: 1, y: 1}
        m_Offset: {x: 0, y: 0}
    - _MainTex:
        m_Texture: {fileID: 2800000, guid: f37027a7baf844d41b58d162d542e902, type: 3}
        m_Scale: {x: 1, y: 1}
        m_Offset: {x: 0, y: 0}
    - _OutlineTex:
        m_Texture: {fileID: 2800000, guid: f37027a7baf844d41b58d162d542e902, type: 3}
        m_Scale: {x: 1, y: 1}
        m_Offset: {x: 0, y: 0}
    m_Ints: []
    m_Floats:
    - _1st_ShadeColor_Feather: 0.26
    - _1st_ShadeColor_Step: 0.78
    - _2nd_ShadeColor_Step: 0.67
    - _AlphaClip: 0
    - _AlphaToMask: 0
    - _BaseColor_Step: 0.78
    - _BaseShade_Feather: 0.26
    - _Is_Filter_LightColor: 1
    - _Is_LightColor_1st_Shade: 1
    - _Is_LightColor_2nd_Shade: 1
    - _Is_LightColor_Ap_RimLight: 1
    - _Is_LightColor_HighColor: 1
    - _Is_LightColor_MatCap: 1
    - _Is_LightColor_Outline: 1
    - _Is_LightColor_RimLight: 1
    - _Offset_Z: -0.56
    - _Outline_Width: 15.63
    - _QueueOffset: -2
    - _RimLight_InsideMask: 1
    - _RimLight_Power: 0.21
    - _ShadeColor_Step: 0.67
    - _StencilComp: 6
    - _StencilMode: 1
    - _StencilNo: 2
    m_Colors:
    - _1st_ShadeColor: {r: 0.745283, g: 0.745283, b: 0.745283, a: 1}
    - _2nd_ShadeColor: {r: 0.24528301, g: 0.24528301, b: 0.24528301, a: 1}
    - _BaseColor: {r: 1, g: 1, b: 1, a: 1}
    - _Color: {r: 1, g: 1, b: 1, a: 1}
    - _Emissive_Color: {r: 0.4245283, g: 0.4245283, b: 0.4245283, a: 1}
    - _HighColor: {r: 1, g: 1, b: 1, a: 1}
    - _Outline_Color: {r: 0.46226418, g: 0.46226418, b: 0.46226418, a: 1}
  m_BuildTextureStacks: []
