%YAML 1.1
%TAG !u! tag:unity3d.com,2011:
--- !u!1001 &8877129035085860033
PrefabInstance:
  m_ObjectHideFlags: 0
  serializedVersion: 2
  m_Modification:
    serializedVersion: 3
    m_TransformParent: {fileID: 0}
    m_Modifications:
    - target: {fileID: -6199044699711700021, guid: 8563fbc59b8e5014d9fd34c2071a2ec5, type: 3}
      propertyPath: m_Materials.Array.data[0]
      value: 
      objectReference: {fileID: 2100000, guid: 7bb29f807f4b2b84a93401f7d22e0bc9, type: 2}
    - target: {fileID: -4216859302048453862, guid: 8563fbc59b8e5014d9fd34c2071a2ec5, type: 3}
      propertyPath: m_RootOrder
      value: 0
      objectReference: {fileID: 0}
    - target: {fileID: -4216859302048453862, guid: 8563fbc59b8e5014d9fd34c2071a2ec5, type: 3}
      propertyPath: m_LocalScale.x
      value: 3
      objectReference: {fileID: 0}
    - target: {fileID: -4216859302048453862, guid: 8563fbc59b8e5014d9fd34c2071a2ec5, type: 3}
      propertyPath: m_LocalScale.y
      value: 3
      objectReference: {fileID: 0}
    - target: {fileID: -4216859302048453862, guid: 8563fbc59b8e5014d9fd34c2071a2ec5, type: 3}
      propertyPath: m_LocalScale.z
      value: 3
      objectReference: {fileID: 0}
    - target: {fileID: -4216859302048453862, guid: 8563fbc59b8e5014d9fd34c2071a2ec5, type: 3}
      propertyPath: m_LocalPosition.x
      value: 0
      objectReference: {fileID: 0}
    - target: {fileID: -4216859302048453862, guid: 8563fbc59b8e5014d9fd34c2071a2ec5, type: 3}
      propertyPath: m_LocalPosition.y
      value: 0
      objectReference: {fileID: 0}
    - target: {fileID: -4216859302048453862, guid: 8563fbc59b8e5014d9fd34c2071a2ec5, type: 3}
      propertyPath: m_LocalPosition.z
      value: 0
      objectReference: {fileID: 0}
    - target: {fileID: -4216859302048453862, guid: 8563fbc59b8e5014d9fd34c2071a2ec5, type: 3}
      propertyPath: m_LocalRotation.w
      value: 1
      objectReference: {fileID: 0}
    - target: {fileID: -4216859302048453862, guid: 8563fbc59b8e5014d9fd34c2071a2ec5, type: 3}
      propertyPath: m_LocalRotation.x
      value: 0
      objectReference: {fileID: 0}
    - target: {fileID: -4216859302048453862, guid: 8563fbc59b8e5014d9fd34c2071a2ec5, type: 3}
      propertyPath: m_LocalRotation.y
      value: 0
      objectReference: {fileID: 0}
    - target: {fileID: -4216859302048453862, guid: 8563fbc59b8e5014d9fd34c2071a2ec5, type: 3}
      propertyPath: m_LocalRotation.z
      value: 0
      objectReference: {fileID: 0}
    - target: {fileID: -4216859302048453862, guid: 8563fbc59b8e5014d9fd34c2071a2ec5, type: 3}
      propertyPath: m_LocalEulerAnglesHint.x
      value: 0
      objectReference: {fileID: 0}
    - target: {fileID: -4216859302048453862, guid: 8563fbc59b8e5014d9fd34c2071a2ec5, type: 3}
      propertyPath: m_LocalEulerAnglesHint.y
      value: 0
      objectReference: {fileID: 0}
    - target: {fileID: -4216859302048453862, guid: 8563fbc59b8e5014d9fd34c2071a2ec5, type: 3}
      propertyPath: m_LocalEulerAnglesHint.z
      value: 0
      objectReference: {fileID: 0}
    - target: {fileID: -4062971387208725825, guid: 8563fbc59b8e5014d9fd34c2071a2ec5, type: 3}
      propertyPath: m_LocalPosition.x
      value: 0
      objectReference: {fileID: 0}
    - target: {fileID: -4062971387208725825, guid: 8563fbc59b8e5014d9fd34c2071a2ec5, type: 3}
      propertyPath: m_LocalRotation.w
      value: 1
      objectReference: {fileID: 0}
    - target: {fileID: -4062971387208725825, guid: 8563fbc59b8e5014d9fd34c2071a2ec5, type: 3}
      propertyPath: m_LocalRotation.x
      value: 0
      objectReference: {fileID: 0}
    - target: {fileID: -4062971387208725825, guid: 8563fbc59b8e5014d9fd34c2071a2ec5, type: 3}
      propertyPath: m_LocalRotation.y
      value: 0
      objectReference: {fileID: 0}
    - target: {fileID: -2726526937188088390, guid: 8563fbc59b8e5014d9fd34c2071a2ec5, type: 3}
      propertyPath: m_LocalPosition.x
      value: 0
      objectReference: {fileID: 0}
    - target: {fileID: -2726526937188088390, guid: 8563fbc59b8e5014d9fd34c2071a2ec5, type: 3}
      propertyPath: m_LocalRotation.w
      value: 1
      objectReference: {fileID: 0}
    - target: {fileID: -2726526937188088390, guid: 8563fbc59b8e5014d9fd34c2071a2ec5, type: 3}
      propertyPath: m_LocalRotation.x
      value: 0
      objectReference: {fileID: 0}
    - target: {fileID: -2726526937188088390, guid: 8563fbc59b8e5014d9fd34c2071a2ec5, type: 3}
      propertyPath: m_LocalRotation.y
      value: 0
      objectReference: {fileID: 0}
    - target: {fileID: -927199367670048503, guid: 8563fbc59b8e5014d9fd34c2071a2ec5, type: 3}
      propertyPath: m_Name
      value: RW_PP_Tree_Gigantea_01
      objectReference: {fileID: 0}
    - target: {fileID: -295507634268414599, guid: 8563fbc59b8e5014d9fd34c2071a2ec5, type: 3}
      propertyPath: m_LocalPosition.x
      value: 0
      objectReference: {fileID: 0}
    - target: {fileID: -295507634268414599, guid: 8563fbc59b8e5014d9fd34c2071a2ec5, type: 3}
      propertyPath: m_LocalRotation.w
      value: 1
      objectReference: {fileID: 0}
    - target: {fileID: -295507634268414599, guid: 8563fbc59b8e5014d9fd34c2071a2ec5, type: 3}
      propertyPath: m_LocalRotation.x
      value: 0
      objectReference: {fileID: 0}
    - target: {fileID: -295507634268414599, guid: 8563fbc59b8e5014d9fd34c2071a2ec5, type: 3}
      propertyPath: m_LocalRotation.y
      value: 0
      objectReference: {fileID: 0}
    - target: {fileID: 3542415689538112900, guid: 8563fbc59b8e5014d9fd34c2071a2ec5, type: 3}
      propertyPath: m_LocalPosition.x
      value: 0
      objectReference: {fileID: 0}
    - target: {fileID: 3542415689538112900, guid: 8563fbc59b8e5014d9fd34c2071a2ec5, type: 3}
      propertyPath: m_LocalRotation.w
      value: 1
      objectReference: {fileID: 0}
    - target: {fileID: 3542415689538112900, guid: 8563fbc59b8e5014d9fd34c2071a2ec5, type: 3}
      propertyPath: m_LocalRotation.x
      value: 0
      objectReference: {fileID: 0}
    - target: {fileID: 3542415689538112900, guid: 8563fbc59b8e5014d9fd34c2071a2ec5, type: 3}
      propertyPath: m_LocalRotation.y
      value: 0
      objectReference: {fileID: 0}
    - target: {fileID: 6463119242274032281, guid: 8563fbc59b8e5014d9fd34c2071a2ec5, type: 3}
      propertyPath: m_Materials.Array.data[0]
      value: 
      objectReference: {fileID: 2100000, guid: 7bb29f807f4b2b84a93401f7d22e0bc9, type: 2}
    - target: {fileID: 6551734254373361101, guid: 8563fbc59b8e5014d9fd34c2071a2ec5, type: 3}
      propertyPath: m_Materials.Array.data[0]
      value: 
      objectReference: {fileID: 2100000, guid: 7bb29f807f4b2b84a93401f7d22e0bc9, type: 2}
    - target: {fileID: 7633640836543460357, guid: 8563fbc59b8e5014d9fd34c2071a2ec5, type: 3}
      propertyPath: m_Materials.Array.data[0]
      value: 
      objectReference: {fileID: 2100000, guid: 7bb29f807f4b2b84a93401f7d22e0bc9, type: 2}
    m_RemovedComponents: []
    m_RemovedGameObjects: []
    m_AddedGameObjects: []
    m_AddedComponents: []
  m_SourcePrefab: {fileID: 100100000, guid: 8563fbc59b8e5014d9fd34c2071a2ec5, type: 3}
