%YAML 1.1
%TAG !u! tag:unity3d.com,2011:
--- !u!1001 &7205581499763231488
PrefabInstance:
  m_ObjectHideFlags: 0
  serializedVersion: 2
  m_Modification:
    serializedVersion: 3
    m_TransformParent: {fileID: 0}
    m_Modifications:
    - target: {fileID: -9217581566072252186, guid: d7eb2ba91312a2342bd9e747c122bcf5, type: 3}
      propertyPath: m_Materials.Array.data[0]
      value: 
      objectReference: {fileID: 2100000, guid: 7bb29f807f4b2b84a93401f7d22e0bc9, type: 2}
    - target: {fileID: -5966624780820032244, guid: d7eb2ba91312a2342bd9e747c122bcf5, type: 3}
      propertyPath: m_LocalScale.x
      value: 1
      objectReference: {fileID: 0}
    - target: {fileID: -5966624780820032244, guid: d7eb2ba91312a2342bd9e747c122bcf5, type: 3}
      propertyPath: m_LocalScale.y
      value: 1
      objectReference: {fileID: 0}
    - target: {fileID: -5966624780820032244, guid: d7eb2ba91312a2342bd9e747c122bcf5, type: 3}
      propertyPath: m_LocalScale.z
      value: 1
      objectReference: {fileID: 0}
    - target: {fileID: -5966624780820032244, guid: d7eb2ba91312a2342bd9e747c122bcf5, type: 3}
      propertyPath: m_LocalPosition.x
      value: 0
      objectReference: {fileID: 0}
    - target: {fileID: -5966624780820032244, guid: d7eb2ba91312a2342bd9e747c122bcf5, type: 3}
      propertyPath: m_LocalRotation.w
      value: 1
      objectReference: {fileID: 0}
    - target: {fileID: -5966624780820032244, guid: d7eb2ba91312a2342bd9e747c122bcf5, type: 3}
      propertyPath: m_LocalRotation.x
      value: 0
      objectReference: {fileID: 0}
    - target: {fileID: -5966624780820032244, guid: d7eb2ba91312a2342bd9e747c122bcf5, type: 3}
      propertyPath: m_LocalRotation.y
      value: 0
      objectReference: {fileID: 0}
    - target: {fileID: -5082164769990663141, guid: d7eb2ba91312a2342bd9e747c122bcf5, type: 3}
      propertyPath: m_LocalScale.x
      value: 1
      objectReference: {fileID: 0}
    - target: {fileID: -5082164769990663141, guid: d7eb2ba91312a2342bd9e747c122bcf5, type: 3}
      propertyPath: m_LocalScale.y
      value: 1
      objectReference: {fileID: 0}
    - target: {fileID: -5082164769990663141, guid: d7eb2ba91312a2342bd9e747c122bcf5, type: 3}
      propertyPath: m_LocalScale.z
      value: 1
      objectReference: {fileID: 0}
    - target: {fileID: -5082164769990663141, guid: d7eb2ba91312a2342bd9e747c122bcf5, type: 3}
      propertyPath: m_LocalPosition.x
      value: 0
      objectReference: {fileID: 0}
    - target: {fileID: -5082164769990663141, guid: d7eb2ba91312a2342bd9e747c122bcf5, type: 3}
      propertyPath: m_LocalRotation.w
      value: 1
      objectReference: {fileID: 0}
    - target: {fileID: -5082164769990663141, guid: d7eb2ba91312a2342bd9e747c122bcf5, type: 3}
      propertyPath: m_LocalRotation.x
      value: 0
      objectReference: {fileID: 0}
    - target: {fileID: -5082164769990663141, guid: d7eb2ba91312a2342bd9e747c122bcf5, type: 3}
      propertyPath: m_LocalRotation.y
      value: 0
      objectReference: {fileID: 0}
    - target: {fileID: -4503740400411688048, guid: d7eb2ba91312a2342bd9e747c122bcf5, type: 3}
      propertyPath: m_LocalScale.x
      value: 1
      objectReference: {fileID: 0}
    - target: {fileID: -4503740400411688048, guid: d7eb2ba91312a2342bd9e747c122bcf5, type: 3}
      propertyPath: m_LocalScale.y
      value: 1
      objectReference: {fileID: 0}
    - target: {fileID: -4503740400411688048, guid: d7eb2ba91312a2342bd9e747c122bcf5, type: 3}
      propertyPath: m_LocalScale.z
      value: 1
      objectReference: {fileID: 0}
    - target: {fileID: -4503740400411688048, guid: d7eb2ba91312a2342bd9e747c122bcf5, type: 3}
      propertyPath: m_LocalPosition.x
      value: 0
      objectReference: {fileID: 0}
    - target: {fileID: -4503740400411688048, guid: d7eb2ba91312a2342bd9e747c122bcf5, type: 3}
      propertyPath: m_LocalRotation.w
      value: 1
      objectReference: {fileID: 0}
    - target: {fileID: -4503740400411688048, guid: d7eb2ba91312a2342bd9e747c122bcf5, type: 3}
      propertyPath: m_LocalRotation.x
      value: 0
      objectReference: {fileID: 0}
    - target: {fileID: -4503740400411688048, guid: d7eb2ba91312a2342bd9e747c122bcf5, type: 3}
      propertyPath: m_LocalRotation.y
      value: 0
      objectReference: {fileID: 0}
    - target: {fileID: -4216859302048453862, guid: d7eb2ba91312a2342bd9e747c122bcf5, type: 3}
      propertyPath: m_RootOrder
      value: 0
      objectReference: {fileID: 0}
    - target: {fileID: -4216859302048453862, guid: d7eb2ba91312a2342bd9e747c122bcf5, type: 3}
      propertyPath: m_LocalScale.x
      value: 3
      objectReference: {fileID: 0}
    - target: {fileID: -4216859302048453862, guid: d7eb2ba91312a2342bd9e747c122bcf5, type: 3}
      propertyPath: m_LocalScale.y
      value: 3
      objectReference: {fileID: 0}
    - target: {fileID: -4216859302048453862, guid: d7eb2ba91312a2342bd9e747c122bcf5, type: 3}
      propertyPath: m_LocalScale.z
      value: 3
      objectReference: {fileID: 0}
    - target: {fileID: -4216859302048453862, guid: d7eb2ba91312a2342bd9e747c122bcf5, type: 3}
      propertyPath: m_LocalPosition.x
      value: 0
      objectReference: {fileID: 0}
    - target: {fileID: -4216859302048453862, guid: d7eb2ba91312a2342bd9e747c122bcf5, type: 3}
      propertyPath: m_LocalPosition.y
      value: 0
      objectReference: {fileID: 0}
    - target: {fileID: -4216859302048453862, guid: d7eb2ba91312a2342bd9e747c122bcf5, type: 3}
      propertyPath: m_LocalPosition.z
      value: 0
      objectReference: {fileID: 0}
    - target: {fileID: -4216859302048453862, guid: d7eb2ba91312a2342bd9e747c122bcf5, type: 3}
      propertyPath: m_LocalRotation.w
      value: 1
      objectReference: {fileID: 0}
    - target: {fileID: -4216859302048453862, guid: d7eb2ba91312a2342bd9e747c122bcf5, type: 3}
      propertyPath: m_LocalRotation.x
      value: 0
      objectReference: {fileID: 0}
    - target: {fileID: -4216859302048453862, guid: d7eb2ba91312a2342bd9e747c122bcf5, type: 3}
      propertyPath: m_LocalRotation.y
      value: 0
      objectReference: {fileID: 0}
    - target: {fileID: -4216859302048453862, guid: d7eb2ba91312a2342bd9e747c122bcf5, type: 3}
      propertyPath: m_LocalRotation.z
      value: 0
      objectReference: {fileID: 0}
    - target: {fileID: -4216859302048453862, guid: d7eb2ba91312a2342bd9e747c122bcf5, type: 3}
      propertyPath: m_LocalEulerAnglesHint.x
      value: 0
      objectReference: {fileID: 0}
    - target: {fileID: -4216859302048453862, guid: d7eb2ba91312a2342bd9e747c122bcf5, type: 3}
      propertyPath: m_LocalEulerAnglesHint.y
      value: 0
      objectReference: {fileID: 0}
    - target: {fileID: -4216859302048453862, guid: d7eb2ba91312a2342bd9e747c122bcf5, type: 3}
      propertyPath: m_LocalEulerAnglesHint.z
      value: 0
      objectReference: {fileID: 0}
    - target: {fileID: -927199367670048503, guid: d7eb2ba91312a2342bd9e747c122bcf5, type: 3}
      propertyPath: m_Name
      value: RW_PP_Tree_Cassia
      objectReference: {fileID: 0}
    - target: {fileID: 785319880117437351, guid: d7eb2ba91312a2342bd9e747c122bcf5, type: 3}
      propertyPath: m_Materials.Array.data[0]
      value: 
      objectReference: {fileID: 2100000, guid: 7bb29f807f4b2b84a93401f7d22e0bc9, type: 2}
    - target: {fileID: 1672141211989049859, guid: d7eb2ba91312a2342bd9e747c122bcf5, type: 3}
      propertyPath: m_Materials.Array.data[0]
      value: 
      objectReference: {fileID: 2100000, guid: 7bb29f807f4b2b84a93401f7d22e0bc9, type: 2}
    - target: {fileID: 5111548116550556109, guid: d7eb2ba91312a2342bd9e747c122bcf5, type: 3}
      propertyPath: m_Materials.Array.data[0]
      value: 
      objectReference: {fileID: 2100000, guid: 7bb29f807f4b2b84a93401f7d22e0bc9, type: 2}
    - target: {fileID: 7666979871314617936, guid: d7eb2ba91312a2342bd9e747c122bcf5, type: 3}
      propertyPath: m_LocalScale.x
      value: 1
      objectReference: {fileID: 0}
    - target: {fileID: 7666979871314617936, guid: d7eb2ba91312a2342bd9e747c122bcf5, type: 3}
      propertyPath: m_LocalScale.y
      value: 1
      objectReference: {fileID: 0}
    - target: {fileID: 7666979871314617936, guid: d7eb2ba91312a2342bd9e747c122bcf5, type: 3}
      propertyPath: m_LocalScale.z
      value: 1
      objectReference: {fileID: 0}
    - target: {fileID: 7666979871314617936, guid: d7eb2ba91312a2342bd9e747c122bcf5, type: 3}
      propertyPath: m_LocalPosition.x
      value: 0
      objectReference: {fileID: 0}
    - target: {fileID: 7666979871314617936, guid: d7eb2ba91312a2342bd9e747c122bcf5, type: 3}
      propertyPath: m_LocalRotation.w
      value: 1
      objectReference: {fileID: 0}
    - target: {fileID: 7666979871314617936, guid: d7eb2ba91312a2342bd9e747c122bcf5, type: 3}
      propertyPath: m_LocalRotation.x
      value: 0
      objectReference: {fileID: 0}
    - target: {fileID: 7666979871314617936, guid: d7eb2ba91312a2342bd9e747c122bcf5, type: 3}
      propertyPath: m_LocalRotation.y
      value: 0
      objectReference: {fileID: 0}
    m_RemovedComponents: []
    m_RemovedGameObjects: []
    m_AddedGameObjects: []
    m_AddedComponents: []
  m_SourcePrefab: {fileID: 100100000, guid: d7eb2ba91312a2342bd9e747c122bcf5, type: 3}
