%YAML 1.1
%TAG !u! tag:unity3d.com,2011:
--- !u!1001 &4225839710371930268
PrefabInstance:
  m_ObjectHideFlags: 0
  serializedVersion: 2
  m_Modification:
    serializedVersion: 3
    m_TransformParent: {fileID: 0}
    m_Modifications:
    - target: {fileID: -8520547808424102068, guid: 34d7c4ae39319994285b6e7e78c6d520, type: 3}
      propertyPath: m_LocalPosition.x
      value: 0
      objectReference: {fileID: 0}
    - target: {fileID: -8520547808424102068, guid: 34d7c4ae39319994285b6e7e78c6d520, type: 3}
      propertyPath: m_LocalRotation.w
      value: 1
      objectReference: {fileID: 0}
    - target: {fileID: -8520547808424102068, guid: 34d7c4ae39319994285b6e7e78c6d520, type: 3}
      propertyPath: m_LocalRotation.x
      value: 0
      objectReference: {fileID: 0}
    - target: {fileID: -8520547808424102068, guid: 34d7c4ae39319994285b6e7e78c6d520, type: 3}
      propertyPath: m_LocalRotation.y
      value: 0
      objectReference: {fileID: 0}
    - target: {fileID: -7516180100401469635, guid: 34d7c4ae39319994285b6e7e78c6d520, type: 3}
      propertyPath: m_LocalPosition.x
      value: 0
      objectReference: {fileID: 0}
    - target: {fileID: -7516180100401469635, guid: 34d7c4ae39319994285b6e7e78c6d520, type: 3}
      propertyPath: m_LocalRotation.w
      value: 1
      objectReference: {fileID: 0}
    - target: {fileID: -7516180100401469635, guid: 34d7c4ae39319994285b6e7e78c6d520, type: 3}
      propertyPath: m_LocalRotation.x
      value: 0
      objectReference: {fileID: 0}
    - target: {fileID: -7516180100401469635, guid: 34d7c4ae39319994285b6e7e78c6d520, type: 3}
      propertyPath: m_LocalRotation.y
      value: 0
      objectReference: {fileID: 0}
    - target: {fileID: -4216859302048453862, guid: 34d7c4ae39319994285b6e7e78c6d520, type: 3}
      propertyPath: m_RootOrder
      value: 0
      objectReference: {fileID: 0}
    - target: {fileID: -4216859302048453862, guid: 34d7c4ae39319994285b6e7e78c6d520, type: 3}
      propertyPath: m_LocalScale.x
      value: 2
      objectReference: {fileID: 0}
    - target: {fileID: -4216859302048453862, guid: 34d7c4ae39319994285b6e7e78c6d520, type: 3}
      propertyPath: m_LocalScale.y
      value: 2
      objectReference: {fileID: 0}
    - target: {fileID: -4216859302048453862, guid: 34d7c4ae39319994285b6e7e78c6d520, type: 3}
      propertyPath: m_LocalScale.z
      value: 2
      objectReference: {fileID: 0}
    - target: {fileID: -4216859302048453862, guid: 34d7c4ae39319994285b6e7e78c6d520, type: 3}
      propertyPath: m_LocalPosition.x
      value: 0
      objectReference: {fileID: 0}
    - target: {fileID: -4216859302048453862, guid: 34d7c4ae39319994285b6e7e78c6d520, type: 3}
      propertyPath: m_LocalPosition.y
      value: 0
      objectReference: {fileID: 0}
    - target: {fileID: -4216859302048453862, guid: 34d7c4ae39319994285b6e7e78c6d520, type: 3}
      propertyPath: m_LocalPosition.z
      value: 0
      objectReference: {fileID: 0}
    - target: {fileID: -4216859302048453862, guid: 34d7c4ae39319994285b6e7e78c6d520, type: 3}
      propertyPath: m_LocalRotation.w
      value: 1
      objectReference: {fileID: 0}
    - target: {fileID: -4216859302048453862, guid: 34d7c4ae39319994285b6e7e78c6d520, type: 3}
      propertyPath: m_LocalRotation.x
      value: 0
      objectReference: {fileID: 0}
    - target: {fileID: -4216859302048453862, guid: 34d7c4ae39319994285b6e7e78c6d520, type: 3}
      propertyPath: m_LocalRotation.y
      value: 0
      objectReference: {fileID: 0}
    - target: {fileID: -4216859302048453862, guid: 34d7c4ae39319994285b6e7e78c6d520, type: 3}
      propertyPath: m_LocalRotation.z
      value: 0
      objectReference: {fileID: 0}
    - target: {fileID: -4216859302048453862, guid: 34d7c4ae39319994285b6e7e78c6d520, type: 3}
      propertyPath: m_LocalEulerAnglesHint.x
      value: 0
      objectReference: {fileID: 0}
    - target: {fileID: -4216859302048453862, guid: 34d7c4ae39319994285b6e7e78c6d520, type: 3}
      propertyPath: m_LocalEulerAnglesHint.y
      value: 0
      objectReference: {fileID: 0}
    - target: {fileID: -4216859302048453862, guid: 34d7c4ae39319994285b6e7e78c6d520, type: 3}
      propertyPath: m_LocalEulerAnglesHint.z
      value: 0
      objectReference: {fileID: 0}
    - target: {fileID: -3519599996383014923, guid: 34d7c4ae39319994285b6e7e78c6d520, type: 3}
      propertyPath: m_LocalPosition.x
      value: 0
      objectReference: {fileID: 0}
    - target: {fileID: -3519599996383014923, guid: 34d7c4ae39319994285b6e7e78c6d520, type: 3}
      propertyPath: m_LocalRotation.w
      value: 1
      objectReference: {fileID: 0}
    - target: {fileID: -3519599996383014923, guid: 34d7c4ae39319994285b6e7e78c6d520, type: 3}
      propertyPath: m_LocalRotation.x
      value: 0
      objectReference: {fileID: 0}
    - target: {fileID: -3519599996383014923, guid: 34d7c4ae39319994285b6e7e78c6d520, type: 3}
      propertyPath: m_LocalRotation.y
      value: 0
      objectReference: {fileID: 0}
    - target: {fileID: -2911820131711465200, guid: 34d7c4ae39319994285b6e7e78c6d520, type: 3}
      propertyPath: m_Materials.Array.data[0]
      value: 
      objectReference: {fileID: 2100000, guid: 7bb29f807f4b2b84a93401f7d22e0bc9, type: 2}
    - target: {fileID: -1607617304196746972, guid: 34d7c4ae39319994285b6e7e78c6d520, type: 3}
      propertyPath: m_LocalPosition.x
      value: 0
      objectReference: {fileID: 0}
    - target: {fileID: -1607617304196746972, guid: 34d7c4ae39319994285b6e7e78c6d520, type: 3}
      propertyPath: m_LocalRotation.w
      value: 1
      objectReference: {fileID: 0}
    - target: {fileID: -1607617304196746972, guid: 34d7c4ae39319994285b6e7e78c6d520, type: 3}
      propertyPath: m_LocalRotation.x
      value: 0
      objectReference: {fileID: 0}
    - target: {fileID: -1607617304196746972, guid: 34d7c4ae39319994285b6e7e78c6d520, type: 3}
      propertyPath: m_LocalRotation.y
      value: 0
      objectReference: {fileID: 0}
    - target: {fileID: -927199367670048503, guid: 34d7c4ae39319994285b6e7e78c6d520, type: 3}
      propertyPath: m_Name
      value: RW_PP_Env_Grass_01
      objectReference: {fileID: 0}
    - target: {fileID: 237937084370475726, guid: 34d7c4ae39319994285b6e7e78c6d520, type: 3}
      propertyPath: m_Materials.Array.data[0]
      value: 
      objectReference: {fileID: 2100000, guid: 7bb29f807f4b2b84a93401f7d22e0bc9, type: 2}
    - target: {fileID: 7888418195299988240, guid: 34d7c4ae39319994285b6e7e78c6d520, type: 3}
      propertyPath: m_Materials.Array.data[0]
      value: 
      objectReference: {fileID: 2100000, guid: 7bb29f807f4b2b84a93401f7d22e0bc9, type: 2}
    - target: {fileID: 8822338449598822938, guid: 34d7c4ae39319994285b6e7e78c6d520, type: 3}
      propertyPath: m_Materials.Array.data[0]
      value: 
      objectReference: {fileID: 2100000, guid: 7bb29f807f4b2b84a93401f7d22e0bc9, type: 2}
    m_RemovedComponents: []
    m_RemovedGameObjects: []
    m_AddedGameObjects: []
    m_AddedComponents: []
  m_SourcePrefab: {fileID: 100100000, guid: 34d7c4ae39319994285b6e7e78c6d520, type: 3}
