%YAML 1.1
%TAG !u! tag:unity3d.com,2011:
--- !u!1001 &3350636113869834923
PrefabInstance:
  m_ObjectHideFlags: 0
  serializedVersion: 2
  m_Modification:
    serializedVersion: 3
    m_TransformParent: {fileID: 0}
    m_Modifications:
    - target: {fileID: -4216859302048453862, guid: 1955ede68f40cb843aac5c92fdeeb6b4, type: 3}
      propertyPath: m_RootOrder
      value: 0
      objectReference: {fileID: 0}
    - target: {fileID: -4216859302048453862, guid: 1955ede68f40cb843aac5c92fdeeb6b4, type: 3}
      propertyPath: m_LocalPosition.x
      value: 0
      objectReference: {fileID: 0}
    - target: {fileID: -4216859302048453862, guid: 1955ede68f40cb843aac5c92fdeeb6b4, type: 3}
      propertyPath: m_LocalPosition.y
      value: 0
      objectReference: {fileID: 0}
    - target: {fileID: -4216859302048453862, guid: 1955ede68f40cb843aac5c92fdeeb6b4, type: 3}
      propertyPath: m_LocalPosition.z
      value: 0
      objectReference: {fileID: 0}
    - target: {fileID: -4216859302048453862, guid: 1955ede68f40cb843aac5c92fdeeb6b4, type: 3}
      propertyPath: m_LocalRotation.w
      value: 1
      objectReference: {fileID: 0}
    - target: {fileID: -4216859302048453862, guid: 1955ede68f40cb843aac5c92fdeeb6b4, type: 3}
      propertyPath: m_LocalRotation.x
      value: 0
      objectReference: {fileID: 0}
    - target: {fileID: -4216859302048453862, guid: 1955ede68f40cb843aac5c92fdeeb6b4, type: 3}
      propertyPath: m_LocalRotation.y
      value: 0
      objectReference: {fileID: 0}
    - target: {fileID: -4216859302048453862, guid: 1955ede68f40cb843aac5c92fdeeb6b4, type: 3}
      propertyPath: m_LocalRotation.z
      value: 0
      objectReference: {fileID: 0}
    - target: {fileID: -4216859302048453862, guid: 1955ede68f40cb843aac5c92fdeeb6b4, type: 3}
      propertyPath: m_LocalEulerAnglesHint.x
      value: 0
      objectReference: {fileID: 0}
    - target: {fileID: -4216859302048453862, guid: 1955ede68f40cb843aac5c92fdeeb6b4, type: 3}
      propertyPath: m_LocalEulerAnglesHint.y
      value: 0
      objectReference: {fileID: 0}
    - target: {fileID: -4216859302048453862, guid: 1955ede68f40cb843aac5c92fdeeb6b4, type: 3}
      propertyPath: m_LocalEulerAnglesHint.z
      value: 0
      objectReference: {fileID: 0}
    - target: {fileID: -927199367670048503, guid: 1955ede68f40cb843aac5c92fdeeb6b4, type: 3}
      propertyPath: m_Name
      value: RW_PP_CaveWall_ShortFlat_02
      objectReference: {fileID: 0}
    - target: {fileID: 2003023172767488911, guid: 1955ede68f40cb843aac5c92fdeeb6b4, type: 3}
      propertyPath: m_Materials.Array.data[0]
      value: 
      objectReference: {fileID: 2100000, guid: 7bb29f807f4b2b84a93401f7d22e0bc9, type: 2}
    - target: {fileID: 2708703678720709167, guid: 1955ede68f40cb843aac5c92fdeeb6b4, type: 3}
      propertyPath: m_Materials.Array.data[0]
      value: 
      objectReference: {fileID: 2100000, guid: 7bb29f807f4b2b84a93401f7d22e0bc9, type: 2}
    - target: {fileID: 8735913019249100528, guid: 1955ede68f40cb843aac5c92fdeeb6b4, type: 3}
      propertyPath: m_Materials.Array.data[0]
      value: 
      objectReference: {fileID: 2100000, guid: 7bb29f807f4b2b84a93401f7d22e0bc9, type: 2}
    m_RemovedComponents: []
    m_RemovedGameObjects: []
    m_AddedGameObjects: []
    m_AddedComponents: []
  m_SourcePrefab: {fileID: 100100000, guid: 1955ede68f40cb843aac5c92fdeeb6b4, type: 3}
