%YAML 1.1
%TAG !u! tag:unity3d.com,2011:
--- !u!1001 &6051394074222156219
PrefabInstance:
  m_ObjectHideFlags: 0
  serializedVersion: 2
  m_Modification:
    serializedVersion: 3
    m_TransformParent: {fileID: 0}
    m_Modifications:
    - target: {fileID: -7613623420946010254, guid: 730e9ff71e7a4984dba0a66237c6c412, type: 3}
      propertyPath: m_Materials.Array.data[0]
      value: 
      objectReference: {fileID: 2100000, guid: 7bb29f807f4b2b84a93401f7d22e0bc9, type: 2}
    - target: {fileID: -4216859302048453862, guid: 730e9ff71e7a4984dba0a66237c6c412, type: 3}
      propertyPath: m_RootOrder
      value: 0
      objectReference: {fileID: 0}
    - target: {fileID: -4216859302048453862, guid: 730e9ff71e7a4984dba0a66237c6c412, type: 3}
      propertyPath: m_LocalPosition.x
      value: 0
      objectReference: {fileID: 0}
    - target: {fileID: -4216859302048453862, guid: 730e9ff71e7a4984dba0a66237c6c412, type: 3}
      propertyPath: m_LocalPosition.y
      value: 0
      objectReference: {fileID: 0}
    - target: {fileID: -4216859302048453862, guid: 730e9ff71e7a4984dba0a66237c6c412, type: 3}
      propertyPath: m_LocalPosition.z
      value: 0
      objectReference: {fileID: 0}
    - target: {fileID: -4216859302048453862, guid: 730e9ff71e7a4984dba0a66237c6c412, type: 3}
      propertyPath: m_LocalRotation.w
      value: 1
      objectReference: {fileID: 0}
    - target: {fileID: -4216859302048453862, guid: 730e9ff71e7a4984dba0a66237c6c412, type: 3}
      propertyPath: m_LocalRotation.x
      value: 0
      objectReference: {fileID: 0}
    - target: {fileID: -4216859302048453862, guid: 730e9ff71e7a4984dba0a66237c6c412, type: 3}
      propertyPath: m_LocalRotation.y
      value: 0
      objectReference: {fileID: 0}
    - target: {fileID: -4216859302048453862, guid: 730e9ff71e7a4984dba0a66237c6c412, type: 3}
      propertyPath: m_LocalRotation.z
      value: 0
      objectReference: {fileID: 0}
    - target: {fileID: -4216859302048453862, guid: 730e9ff71e7a4984dba0a66237c6c412, type: 3}
      propertyPath: m_LocalEulerAnglesHint.x
      value: 0
      objectReference: {fileID: 0}
    - target: {fileID: -4216859302048453862, guid: 730e9ff71e7a4984dba0a66237c6c412, type: 3}
      propertyPath: m_LocalEulerAnglesHint.y
      value: 0
      objectReference: {fileID: 0}
    - target: {fileID: -4216859302048453862, guid: 730e9ff71e7a4984dba0a66237c6c412, type: 3}
      propertyPath: m_LocalEulerAnglesHint.z
      value: 0
      objectReference: {fileID: 0}
    - target: {fileID: -1639825338129648345, guid: 730e9ff71e7a4984dba0a66237c6c412, type: 3}
      propertyPath: m_Materials.Array.data[0]
      value: 
      objectReference: {fileID: 2100000, guid: 7bb29f807f4b2b84a93401f7d22e0bc9, type: 2}
    - target: {fileID: -927199367670048503, guid: 730e9ff71e7a4984dba0a66237c6c412, type: 3}
      propertyPath: m_Name
      value: RW_PP_CaveWall_ShortFlat_01
      objectReference: {fileID: 0}
    - target: {fileID: 864642679226069760, guid: 730e9ff71e7a4984dba0a66237c6c412, type: 3}
      propertyPath: m_Materials.Array.data[0]
      value: 
      objectReference: {fileID: 2100000, guid: 7bb29f807f4b2b84a93401f7d22e0bc9, type: 2}
    m_RemovedComponents: []
    m_RemovedGameObjects: []
    m_AddedGameObjects: []
    m_AddedComponents: []
  m_SourcePrefab: {fileID: 100100000, guid: 730e9ff71e7a4984dba0a66237c6c412, type: 3}
