%YAML 1.1
%TAG !u! tag:unity3d.com,2011:
--- !u!1001 &36376888160113346
PrefabInstance:
  m_ObjectHideFlags: 0
  serializedVersion: 2
  m_Modification:
    serializedVersion: 3
    m_TransformParent: {fileID: 0}
    m_Modifications:
    - target: {fileID: -4216859302048453862, guid: fbfe1ffe5fb9e7f4083ef0b856b1361b, type: 3}
      propertyPath: m_RootOrder
      value: 0
      objectReference: {fileID: 0}
    - target: {fileID: -4216859302048453862, guid: fbfe1ffe5fb9e7f4083ef0b856b1361b, type: 3}
      propertyPath: m_LocalPosition.x
      value: 0
      objectReference: {fileID: 0}
    - target: {fileID: -4216859302048453862, guid: fbfe1ffe5fb9e7f4083ef0b856b1361b, type: 3}
      propertyPath: m_LocalPosition.y
      value: 0
      objectReference: {fileID: 0}
    - target: {fileID: -4216859302048453862, guid: fbfe1ffe5fb9e7f4083ef0b856b1361b, type: 3}
      propertyPath: m_LocalPosition.z
      value: 0
      objectReference: {fileID: 0}
    - target: {fileID: -4216859302048453862, guid: fbfe1ffe5fb9e7f4083ef0b856b1361b, type: 3}
      propertyPath: m_LocalRotation.w
      value: 1
      objectReference: {fileID: 0}
    - target: {fileID: -4216859302048453862, guid: fbfe1ffe5fb9e7f4083ef0b856b1361b, type: 3}
      propertyPath: m_LocalRotation.x
      value: 0
      objectReference: {fileID: 0}
    - target: {fileID: -4216859302048453862, guid: fbfe1ffe5fb9e7f4083ef0b856b1361b, type: 3}
      propertyPath: m_LocalRotation.y
      value: 0
      objectReference: {fileID: 0}
    - target: {fileID: -4216859302048453862, guid: fbfe1ffe5fb9e7f4083ef0b856b1361b, type: 3}
      propertyPath: m_LocalRotation.z
      value: 0
      objectReference: {fileID: 0}
    - target: {fileID: -4216859302048453862, guid: fbfe1ffe5fb9e7f4083ef0b856b1361b, type: 3}
      propertyPath: m_LocalEulerAnglesHint.x
      value: 0
      objectReference: {fileID: 0}
    - target: {fileID: -4216859302048453862, guid: fbfe1ffe5fb9e7f4083ef0b856b1361b, type: 3}
      propertyPath: m_LocalEulerAnglesHint.y
      value: 0
      objectReference: {fileID: 0}
    - target: {fileID: -4216859302048453862, guid: fbfe1ffe5fb9e7f4083ef0b856b1361b, type: 3}
      propertyPath: m_LocalEulerAnglesHint.z
      value: 0
      objectReference: {fileID: 0}
    - target: {fileID: -3116985284251075316, guid: fbfe1ffe5fb9e7f4083ef0b856b1361b, type: 3}
      propertyPath: m_Materials.Array.data[0]
      value: 
      objectReference: {fileID: 2100000, guid: 7bb29f807f4b2b84a93401f7d22e0bc9, type: 2}
    - target: {fileID: -1391678567133245105, guid: fbfe1ffe5fb9e7f4083ef0b856b1361b, type: 3}
      propertyPath: m_Materials.Array.data[0]
      value: 
      objectReference: {fileID: 2100000, guid: 7bb29f807f4b2b84a93401f7d22e0bc9, type: 2}
    - target: {fileID: -927199367670048503, guid: fbfe1ffe5fb9e7f4083ef0b856b1361b, type: 3}
      propertyPath: m_Name
      value: RW_PP_CaveWall_ShortConvex_03
      objectReference: {fileID: 0}
    - target: {fileID: 6460864922933445106, guid: fbfe1ffe5fb9e7f4083ef0b856b1361b, type: 3}
      propertyPath: m_Materials.Array.data[0]
      value: 
      objectReference: {fileID: 2100000, guid: 7bb29f807f4b2b84a93401f7d22e0bc9, type: 2}
    m_RemovedComponents: []
    m_RemovedGameObjects: []
    m_AddedGameObjects: []
    m_AddedComponents: []
  m_SourcePrefab: {fileID: 100100000, guid: fbfe1ffe5fb9e7f4083ef0b856b1361b, type: 3}
