%YAML 1.1
%TAG !u! tag:unity3d.com,2011:
--- !u!114 &11400000
MonoBehaviour:
  m_ObjectHideFlags: 0
  m_CorrespondingSourceObject: {fileID: 0}
  m_PrefabInstance: {fileID: 0}
  m_PrefabAsset: {fileID: 0}
  m_GameObject: {fileID: 0}
  m_Enabled: 1
  m_EditorHideFlags: 0
  m_Script: {fileID: 11500000, guid: 3ad70174b079c2f4ebc7931d3dd1af6f, type: 3}
  m_Name: DefaultPrefabObjects
  m_EditorClassIdentifier: 
  _prefabs:
  - {fileID: 8263885790667881632, guid: a239623f1e42d8b42ac311e130c632ef, type: 3}
  - {fileID: -3398947709112275205, guid: 662fa8d2102f80b4a97c1dff48280d44, type: 3}
  - {fileID: 5217338063837214402, guid: 0a10dcfe37d95e04aacab79a773a211c, type: 3}
  - {fileID: 1604203689265432701, guid: af6c481a6abee01488545a89b56301ca, type: 3}
  - {fileID: 3179533375742926109, guid: 4e55edb6e0a85fa43847b2e9afaa1ca0, type: 3}
  - {fileID: 2035857699843329584, guid: e935339289804bc49be912e60d5d6b49, type: 3}
  - {fileID: -943904335527774475, guid: 965d0c75554679f4a860a0c29d1214bc, type: 3}
  - {fileID: -1560266026769700853, guid: a370bc636c20bb34e9277d5d0491044c, type: 3}
  - {fileID: -1560266026769700853, guid: 4e18969bc1b2e884d84c91660e41c8ff, type: 3}
  - {fileID: -1560266026769700853, guid: 65aca1b77c687814eb26f98cd829e50c, type: 3}
  - {fileID: 1944761648551176670, guid: 24648bfec27b3974abfeeab54f43d543, type: 3}
  - {fileID: 1944761648551176670, guid: f2a09fc0914d89542899f9ae8b0a5d8b, type: 3}
  - {fileID: 1944761648551176670, guid: 657c5caa8f224d54e8ca00bbccf5d7cb, type: 3}
  - {fileID: 1944761648551176670, guid: 03196adcbade0344d82c99d6d56494ad, type: 3}
  - {fileID: 1944761648551176670, guid: bd342d4fb53e2634299b4422b2da9a87, type: 3}
  - {fileID: 1944761648551176670, guid: a69c967d47686c049b024f0e7f9db7cd, type: 3}
  - {fileID: 1944761648551176670, guid: a8c9484f8fc90104c9d7978c9a2b4454, type: 3}
  - {fileID: 1944761648551176670, guid: 14eb355609ea4fe40bed5a0d1348a9c6, type: 3}
  - {fileID: 1944761648551176670, guid: 327f9bd639790194da07372ca1509c2c, type: 3}
  - {fileID: 1944761648551176670, guid: 45c1416108d2d4748b0ad1dfce6d9356, type: 3}
  - {fileID: 3708480246264910948, guid: d688198324854324b929af99955e1884, type: 3}
  - {fileID: 1944761648551176670, guid: 631723bb6642ec6448f0901cc1deb975, type: 3}
  - {fileID: 1944761648551176670, guid: 694eb52246d7c4347a59b452b1f203c9, type: 3}
  - {fileID: 1944761648551176670, guid: bef1f982c0aad3248b38a625cb3c2cd8, type: 3}
  - {fileID: 8302329928824072530, guid: 381dbb08d7ccfac4b8b47221ba90df60, type: 3}
  - {fileID: 8475222101369129519, guid: 8cf33e8e99a9b0c4c8f29ff725650de6, type: 3}
  - {fileID: 4512293259955182956, guid: 44611030e61220d42ab7c37ba3c0ea92, type: 3}
  - {fileID: 4512293259955182956, guid: 0d6d0f48b03b17f49a6340103cd9b9d0, type: 3}
  - {fileID: 4512293259955182956, guid: f32d4c19de900e64cb73cedcb8ba6f70, type: 3}
  - {fileID: 4512293259955182956, guid: 300370bdf7819da41937e0beac65b32c, type: 3}
  - {fileID: 611616139817875448, guid: bf5f023b4017a5e41a9815ec5745df3d, type: 3}
  - {fileID: 6443780140225780309, guid: 6c64ec0fb6f66864691fc978ab88dbd1, type: 3}
  - {fileID: 201277550, guid: 5b712878ecece354ba4ffb026c0a221c, type: 3}
  - {fileID: 201277550, guid: 8ef354bfc16ca8a459074c3fa9b6727e, type: 3}
