%YAML 1.1
%TAG !u! tag:unity3d.com,2011:
--- !u!1045 &1
EditorBuildSettings:
  m_ObjectHideFlags: 0
  serializedVersion: 2
  m_Scenes:
  - enabled: 1
    path: Assets/Scenes/Lobby.unity
    guid: 1d1f72095367d2141be150efdd3296e1
  - enabled: 1
    path: Assets/Scenes/Game.unity
    guid: c0b2194db9de63648b5aab1282117443
  m_configObjects: {}
