{
  "dependencies": {
    "com.alven.fishnet.unitytransport": {
      "version": "https://github.com/ooonush/FishyUnityTransport.git?path=Assets/FishNet/Plugins/FishyUnityTransport",
      "depth": 0,
      "source": "git",
      "dependencies": {
        "com.unity.transport": "1.3.1"
      },
      "hash": "591ef0feca00dfb0d529ea99bb323b3f770ae39d"
    },
    "com.nobi.roundedcorners": {
      "version": "https://github.com/kirevdokimov/Unity-UI-Rounded-Corners.git",
      "depth": 0,
      "source": "git",
      "dependencies": {},
      "hash": "06c20cafa885cbb9f14791c269cda6b547e0be30"
    },
    "com.unity.2d.sprite": {
      "version": "1.0.0",
      "depth": 0,
      "source": "builtin",
      "dependencies": {}
    },
    "com.unity.ai.navigation": {
      "version": "1.1.4",
      "depth": 0,
      "source": "registry",
      "dependencies": {
        "com.unity.modules.ai": "1.0.0"
      },
      "url": "https://packages.unity.com"
    },
    "com.unity.burst": {
      "version": "1.8.12",
      "depth": 1,
      "source": "registry",
      "dependencies": {
        "com.unity.mathematics": "1.2.1",
        "com.unity.modules.jsonserialize": "1.0.0"
      },
      "url": "https://packages.unity.com"
    },
    "com.unity.cinemachine": {
      "version": "2.9.7",
      "depth": 0,
      "source": "registry",
      "dependencies": {
        "com.unity.test-framework": "1.1.31"
      },
      "url": "https://packages.unity.com"
    },
    "com.unity.collab-proxy": {
      "version": "2.0.5",
      "depth": 0,
      "source": "registry",
      "dependencies": {},
      "url": "https://packages.unity.com"
    },
    "com.unity.collections": {
      "version": "2.2.1",
      "depth": 1,
      "source": "registry",
      "dependencies": {
        "com.unity.burst": "1.8.8",
        "com.unity.modules.unityanalytics": "1.0.0",
        "com.unity.nuget.mono-cecil": "1.11.4",
        "com.unity.test-framework.performance": "3.0.2"
      },
      "url": "https://packages.unity.com"
    },
    "com.unity.editorcoroutines": {
      "version": "1.0.0",
      "depth": 1,
      "source": "registry",
      "dependencies": {},
      "url": "https://packages.unity.com"
    },
    "com.unity.ext.nunit": {
      "version": "1.0.6",
      "depth": 1,
      "source": "registry",
      "dependencies": {},
      "url": "https://packages.unity.com"
    },
    "com.unity.feature.development": {
      "version": "1.0.1",
      "depth": 0,
      "source": "builtin",
      "dependencies": {
        "com.unity.ide.visualstudio": "2.0.18",
        "com.unity.ide.rider": "3.0.24",
        "com.unity.ide.vscode": "1.2.5",
        "com.unity.editorcoroutines": "1.0.0",
        "com.unity.performance.profile-analyzer": "1.2.2",
        "com.unity.test-framework": "1.1.33",
        "com.unity.testtools.codecoverage": "1.2.4"
      }
    },
    "com.unity.film-internal-utilities": {
      "version": "0.18.4-preview",
      "depth": 1,
      "source": "registry",
      "dependencies": {
        "com.unity.modules.uielements": "1.0.0",
        "com.unity.timeline": "1.2.18"
      },
      "url": "https://packages.unity.com"
    },
    "com.unity.ide.rider": {
      "version": "3.0.24",
      "depth": 0,
      "source": "registry",
      "dependencies": {
        "com.unity.ext.nunit": "1.0.6"
      },
      "url": "https://packages.unity.com"
    },
    "com.unity.ide.visualstudio": {
      "version": "2.0.18",
      "depth": 0,
      "source": "registry",
      "dependencies": {
        "com.unity.test-framework": "1.1.9"
      },
      "url": "https://packages.unity.com"
    },
    "com.unity.ide.vscode": {
      "version": "1.2.5",
      "depth": 0,
      "source": "registry",
      "dependencies": {},
      "url": "https://packages.unity.com"
    },
    "com.unity.mathematics": {
      "version": "1.3.1",
      "depth": 1,
      "source": "registry",
      "dependencies": {},
      "url": "https://packages.unity.com"
    },
    "com.unity.nuget.mono-cecil": {
      "version": "1.11.4",
      "depth": 2,
      "source": "registry",
      "dependencies": {},
      "url": "https://packages.unity.com"
    },
    "com.unity.nuget.newtonsoft-json": {
      "version": "3.2.1",
      "depth": 0,
      "source": "registry",
      "dependencies": {},
      "url": "https://packages.unity.com"
    },
    "com.unity.performance.profile-analyzer": {
      "version": "1.2.2",
      "depth": 1,
      "source": "registry",
      "dependencies": {},
      "url": "https://packages.unity.com"
    },
    "com.unity.postprocessing": {
      "version": "3.2.2",
      "depth": 0,
      "source": "registry",
      "dependencies": {
        "com.unity.modules.physics": "1.0.0"
      },
      "url": "https://packages.unity.com"
    },
    "com.unity.render-pipelines.core": {
      "version": "14.0.8",
      "depth": 1,
      "source": "builtin",
      "dependencies": {
        "com.unity.ugui": "1.0.0",
        "com.unity.modules.physics": "1.0.0",
        "com.unity.modules.terrain": "1.0.0",
        "com.unity.modules.jsonserialize": "1.0.0"
      }
    },
    "com.unity.render-pipelines.universal": {
      "version": "14.0.8",
      "depth": 0,
      "source": "builtin",
      "dependencies": {
        "com.unity.mathematics": "1.2.1",
        "com.unity.burst": "1.8.4",
        "com.unity.render-pipelines.core": "14.0.8",
        "com.unity.shadergraph": "14.0.8"
      }
    },
    "com.unity.searcher": {
      "version": "4.9.2",
      "depth": 2,
      "source": "registry",
      "dependencies": {},
      "url": "https://packages.unity.com"
    },
    "com.unity.services.authentication": {
      "version": "2.7.4",
      "depth": 1,
      "source": "registry",
      "dependencies": {
        "com.unity.nuget.newtonsoft-json": "3.2.1",
        "com.unity.services.core": "1.12.5",
        "com.unity.modules.unitywebrequest": "1.0.0",
        "com.unity.ugui": "1.0.0"
      },
      "url": "https://packages.unity.com"
    },
    "com.unity.services.core": {
      "version": "1.12.5",
      "depth": 1,
      "source": "registry",
      "dependencies": {
        "com.unity.modules.unitywebrequest": "1.0.0",
        "com.unity.nuget.newtonsoft-json": "3.2.1",
        "com.unity.modules.androidjni": "1.0.0"
      },
      "url": "https://packages.unity.com"
    },
    "com.unity.services.lobby": {
      "version": "1.2.2",
      "depth": 0,
      "source": "registry",
      "dependencies": {
        "com.unity.services.core": "1.12.5",
        "com.unity.modules.unitywebrequest": "1.0.0",
        "com.unity.modules.unitywebrequestassetbundle": "1.0.0",
        "com.unity.modules.unitywebrequestaudio": "1.0.0",
        "com.unity.modules.unitywebrequesttexture": "1.0.0",
        "com.unity.modules.unitywebrequestwww": "1.0.0",
        "com.unity.nuget.newtonsoft-json": "3.0.2",
        "com.unity.services.authentication": "2.7.4",
        "com.unity.services.wire": "1.2.6"
      },
      "url": "https://packages.unity.com"
    },
    "com.unity.services.qos": {
      "version": "1.2.1",
      "depth": 1,
      "source": "registry",
      "dependencies": {
        "com.unity.services.core": "1.4.0",
        "com.unity.modules.unitywebrequest": "1.0.0",
        "com.unity.nuget.newtonsoft-json": "3.0.2",
        "com.unity.services.authentication": "2.0.0",
        "com.unity.collections": "1.2.4"
      },
      "url": "https://packages.unity.com"
    },
    "com.unity.services.relay": {
      "version": "1.0.5",
      "depth": 0,
      "source": "registry",
      "dependencies": {
        "com.unity.services.core": "1.4.0",
        "com.unity.services.authentication": "2.0.0",
        "com.unity.services.qos": "1.1.0",
        "com.unity.modules.unitywebrequest": "1.0.0",
        "com.unity.modules.unitywebrequestassetbundle": "1.0.0",
        "com.unity.modules.unitywebrequestaudio": "1.0.0",
        "com.unity.modules.unitywebrequesttexture": "1.0.0",
        "com.unity.modules.unitywebrequestwww": "1.0.0",
        "com.unity.nuget.newtonsoft-json": "3.0.2",
        "com.unity.transport": "1.3.0"
      },
      "url": "https://packages.unity.com"
    },
    "com.unity.services.wire": {
      "version": "1.2.6",
      "depth": 1,
      "source": "registry",
      "dependencies": {
        "com.unity.services.core": "1.12.5",
        "com.unity.nuget.newtonsoft-json": "3.2.1",
        "com.unity.services.authentication": "2.7.4"
      },
      "url": "https://packages.unity.com"
    },
    "com.unity.settings-manager": {
      "version": "2.0.1",
      "depth": 2,
      "source": "registry",
      "dependencies": {},
      "url": "https://packages.unity.com"
    },
    "com.unity.shadergraph": {
      "version": "14.0.8",
      "depth": 1,
      "source": "builtin",
      "dependencies": {
        "com.unity.render-pipelines.core": "14.0.8",
        "com.unity.searcher": "4.9.2"
      }
    },
    "com.unity.sysroot": {
      "version": "2.0.5",
      "depth": 1,
      "source": "registry",
      "dependencies": {},
      "url": "https://packages.unity.com"
    },
    "com.unity.sysroot.linux-x86_64": {
      "version": "2.0.4",
      "depth": 1,
      "source": "registry",
      "dependencies": {
        "com.unity.sysroot": "2.0.5"
      },
      "url": "https://packages.unity.com"
    },
    "com.unity.test-framework": {
      "version": "1.1.33",
      "depth": 0,
      "source": "registry",
      "dependencies": {
        "com.unity.ext.nunit": "1.0.6",
        "com.unity.modules.imgui": "1.0.0",
        "com.unity.modules.jsonserialize": "1.0.0"
      },
      "url": "https://packages.unity.com"
    },
    "com.unity.test-framework.performance": {
      "version": "3.0.2",
      "depth": 2,
      "source": "registry",
      "dependencies": {
        "com.unity.test-framework": "1.1.31",
        "com.unity.modules.jsonserialize": "1.0.0"
      },
      "url": "https://packages.unity.com"
    },
    "com.unity.testtools.codecoverage": {
      "version": "1.2.4",
      "depth": 1,
      "source": "registry",
      "dependencies": {
        "com.unity.test-framework": "1.0.16",
        "com.unity.settings-manager": "1.0.1"
      },
      "url": "https://packages.unity.com"
    },
    "com.unity.textmeshpro": {
      "version": "3.0.6",
      "depth": 0,
      "source": "registry",
      "dependencies": {
        "com.unity.ugui": "1.0.0"
      },
      "url": "https://packages.unity.com"
    },
    "com.unity.timeline": {
      "version": "1.7.5",
      "depth": 0,
      "source": "registry",
      "dependencies": {
        "com.unity.modules.director": "1.0.0",
        "com.unity.modules.animation": "1.0.0",
        "com.unity.modules.audio": "1.0.0",
        "com.unity.modules.particlesystem": "1.0.0"
      },
      "url": "https://packages.unity.com"
    },
    "com.unity.toolchain.win-x86_64-linux-x86_64": {
      "version": "2.0.4",
      "depth": 0,
      "source": "registry",
      "dependencies": {
        "com.unity.sysroot": "2.0.5",
        "com.unity.sysroot.linux-x86_64": "2.0.4"
      },
      "url": "https://packages.unity.com"
    },
    "com.unity.toonshader": {
      "version": "0.10.0-preview",
      "depth": 0,
      "source": "registry",
      "dependencies": {
        "com.unity.film-internal-utilities": "0.18.4-preview",
        "com.unity.render-pipelines.core": "10.0.0"
      },
      "url": "https://packages.unity.com"
    },
    "com.unity.transport": {
      "version": "2.3.0",
      "depth": 0,
      "source": "registry",
      "dependencies": {
        "com.unity.collections": "2.2.1",
        "com.unity.burst": "1.8.12",
        "com.unity.mathematics": "1.3.1"
      },
      "url": "https://packages.unity.com"
    },
    "com.unity.ugui": {
      "version": "1.0.0",
      "depth": 0,
      "source": "builtin",
      "dependencies": {
        "com.unity.modules.ui": "1.0.0",
        "com.unity.modules.imgui": "1.0.0"
      }
    },
    "com.unity.visualscripting": {
      "version": "1.8.0",
      "depth": 0,
      "source": "registry",
      "dependencies": {
        "com.unity.ugui": "1.0.0",
        "com.unity.modules.jsonserialize": "1.0.0"
      },
      "url": "https://packages.unity.com"
    },
    "com.veriorpies.parrelsync": {
      "version": "https://github.com/VeriorPies/ParrelSync.git?path=/ParrelSync",
      "depth": 0,
      "source": "git",
      "dependencies": {},
      "hash": "d1ef610e9fe3ad0b490cce91594449fc0af809a6"
    },
    "moe.meryuhi.effects.fog": {
      "version": "https://github.com/meryuhi/URPFog.git?path=Packages/Fog",
      "depth": 0,
      "source": "git",
      "dependencies": {
        "com.unity.render-pipelines.universal": "14.0.0"
      },
      "hash": "e834359b3ff7832e8ca040dd2037c0571369927f"
    },
    "com.unity.modules.ai": {
      "version": "1.0.0",
      "depth": 0,
      "source": "builtin",
      "dependencies": {}
    },
    "com.unity.modules.androidjni": {
      "version": "1.0.0",
      "depth": 0,
      "source": "builtin",
      "dependencies": {}
    },
    "com.unity.modules.animation": {
      "version": "1.0.0",
      "depth": 0,
      "source": "builtin",
      "dependencies": {}
    },
    "com.unity.modules.assetbundle": {
      "version": "1.0.0",
      "depth": 0,
      "source": "builtin",
      "dependencies": {}
    },
    "com.unity.modules.audio": {
      "version": "1.0.0",
      "depth": 0,
      "source": "builtin",
      "dependencies": {}
    },
    "com.unity.modules.cloth": {
      "version": "1.0.0",
      "depth": 0,
      "source": "builtin",
      "dependencies": {
        "com.unity.modules.physics": "1.0.0"
      }
    },
    "com.unity.modules.director": {
      "version": "1.0.0",
      "depth": 0,
      "source": "builtin",
      "dependencies": {
        "com.unity.modules.audio": "1.0.0",
        "com.unity.modules.animation": "1.0.0"
      }
    },
    "com.unity.modules.imageconversion": {
      "version": "1.0.0",
      "depth": 0,
      "source": "builtin",
      "dependencies": {}
    },
    "com.unity.modules.imgui": {
      "version": "1.0.0",
      "depth": 0,
      "source": "builtin",
      "dependencies": {}
    },
    "com.unity.modules.jsonserialize": {
      "version": "1.0.0",
      "depth": 0,
      "source": "builtin",
      "dependencies": {}
    },
    "com.unity.modules.particlesystem": {
      "version": "1.0.0",
      "depth": 0,
      "source": "builtin",
      "dependencies": {}
    },
    "com.unity.modules.physics": {
      "version": "1.0.0",
      "depth": 0,
      "source": "builtin",
      "dependencies": {}
    },
    "com.unity.modules.physics2d": {
      "version": "1.0.0",
      "depth": 0,
      "source": "builtin",
      "dependencies": {}
    },
    "com.unity.modules.screencapture": {
      "version": "1.0.0",
      "depth": 0,
      "source": "builtin",
      "dependencies": {
        "com.unity.modules.imageconversion": "1.0.0"
      }
    },
    "com.unity.modules.subsystems": {
      "version": "1.0.0",
      "depth": 1,
      "source": "builtin",
      "dependencies": {
        "com.unity.modules.jsonserialize": "1.0.0"
      }
    },
    "com.unity.modules.terrain": {
      "version": "1.0.0",
      "depth": 0,
      "source": "builtin",
      "dependencies": {}
    },
    "com.unity.modules.terrainphysics": {
      "version": "1.0.0",
      "depth": 0,
      "source": "builtin",
      "dependencies": {
        "com.unity.modules.physics": "1.0.0",
        "com.unity.modules.terrain": "1.0.0"
      }
    },
    "com.unity.modules.tilemap": {
      "version": "1.0.0",
      "depth": 0,
      "source": "builtin",
      "dependencies": {
        "com.unity.modules.physics2d": "1.0.0"
      }
    },
    "com.unity.modules.ui": {
      "version": "1.0.0",
      "depth": 0,
      "source": "builtin",
      "dependencies": {}
    },
    "com.unity.modules.uielements": {
      "version": "1.0.0",
      "depth": 0,
      "source": "builtin",
      "dependencies": {
        "com.unity.modules.ui": "1.0.0",
        "com.unity.modules.imgui": "1.0.0",
        "com.unity.modules.jsonserialize": "1.0.0"
      }
    },
    "com.unity.modules.umbra": {
      "version": "1.0.0",
      "depth": 0,
      "source": "builtin",
      "dependencies": {}
    },
    "com.unity.modules.unityanalytics": {
      "version": "1.0.0",
      "depth": 0,
      "source": "builtin",
      "dependencies": {
        "com.unity.modules.unitywebrequest": "1.0.0",
        "com.unity.modules.jsonserialize": "1.0.0"
      }
    },
    "com.unity.modules.unitywebrequest": {
      "version": "1.0.0",
      "depth": 0,
      "source": "builtin",
      "dependencies": {}
    },
    "com.unity.modules.unitywebrequestassetbundle": {
      "version": "1.0.0",
      "depth": 0,
      "source": "builtin",
      "dependencies": {
        "com.unity.modules.assetbundle": "1.0.0",
        "com.unity.modules.unitywebrequest": "1.0.0"
      }
    },
    "com.unity.modules.unitywebrequestaudio": {
      "version": "1.0.0",
      "depth": 0,
      "source": "builtin",
      "dependencies": {
        "com.unity.modules.unitywebrequest": "1.0.0",
        "com.unity.modules.audio": "1.0.0"
      }
    },
    "com.unity.modules.unitywebrequesttexture": {
      "version": "1.0.0",
      "depth": 0,
      "source": "builtin",
      "dependencies": {
        "com.unity.modules.unitywebrequest": "1.0.0",
        "com.unity.modules.imageconversion": "1.0.0"
      }
    },
    "com.unity.modules.unitywebrequestwww": {
      "version": "1.0.0",
      "depth": 0,
      "source": "builtin",
      "dependencies": {
        "com.unity.modules.unitywebrequest": "1.0.0",
        "com.unity.modules.unitywebrequestassetbundle": "1.0.0",
        "com.unity.modules.unitywebrequestaudio": "1.0.0",
        "com.unity.modules.audio": "1.0.0",
        "com.unity.modules.assetbundle": "1.0.0",
        "com.unity.modules.imageconversion": "1.0.0"
      }
    },
    "com.unity.modules.vehicles": {
      "version": "1.0.0",
      "depth": 0,
      "source": "builtin",
      "dependencies": {
        "com.unity.modules.physics": "1.0.0"
      }
    },
    "com.unity.modules.video": {
      "version": "1.0.0",
      "depth": 0,
      "source": "builtin",
      "dependencies": {
        "com.unity.modules.audio": "1.0.0",
        "com.unity.modules.ui": "1.0.0",
        "com.unity.modules.unitywebrequest": "1.0.0"
      }
    },
    "com.unity.modules.vr": {
      "version": "1.0.0",
      "depth": 0,
      "source": "builtin",
      "dependencies": {
        "com.unity.modules.jsonserialize": "1.0.0",
        "com.unity.modules.physics": "1.0.0",
        "com.unity.modules.xr": "1.0.0"
      }
    },
    "com.unity.modules.wind": {
      "version": "1.0.0",
      "depth": 0,
      "source": "builtin",
      "dependencies": {}
    },
    "com.unity.modules.xr": {
      "version": "1.0.0",
      "depth": 0,
      "source": "builtin",
      "dependencies": {
        "com.unity.modules.physics": "1.0.0",
        "com.unity.modules.jsonserialize": "1.0.0",
        "com.unity.modules.subsystems": "1.0.0"
      }
    }
  }
}
